-0.5,-0.5,18.869
-0.5,-0.475,18.384
-0.5,-0.45,18.13
-0.5,-0.425,18.031
-0.5,-0.4,17.865
-0.5,-0.375,17.426
-0.5,-0.35,16.69
-0.5,-0.325,15.874
-0.5,-0.3,15.339
-0.5,-0.275,15.384
-0.5,-0.25,16.075
-0.5,-0.225,17.179
-0.5,-0.2,18.274
-0.5,-0.175,18.934
-0.5,-0.15,18.919
-0.5,-0.125,18.26
-0.5,-0.1,-12.783
-0.5,-0.075,-12.658
-0.5,-0.05,-12.063
-0.5,-0.025,-11.157
-0.5,0,-10.191
-0.5,0.025,-9.4404
-0.5,0.05,-9.1301
-0.5,0.075,-9.3678
-0.5,0.1,-10.097
-0.5,0.125,15.642
-0.5,0.15,15.531
-0.5,0.175,15.276
-0.5,0.2,14.968
-0.5,0.225,14.738
-0.5,0.25,14.733
-0.5,0.275,15.055
-0.5,0.3,15.685
-0.5,0.325,16.457
-0.5,0.35,17.118
-0.5,0.375,17.464
-0.5,0.4,17.451
-0.5,0.425,17.212
-0.5,0.45,16.955
-0.5,0.475,16.841
-0.5,0.5,16.936
-0.475,-0.5,17.649
-0.475,-0.475,17.372
-0.475,-0.45,17.402
-0.475,-0.425,17.595
-0.475,-0.4,17.669
-0.475,-0.375,17.39
-0.475,-0.35,16.742
-0.475,-0.325,15.965
-0.475,-0.3,15.424
-0.475,-0.275,15.412
-0.475,-0.25,15.974
-0.475,-0.225,16.874
-0.475,-0.2,17.697
-0.475,-0.175,-10.097
-0.475,-0.15,-11.366
-0.475,-0.125,-12.309
-0.475,-0.1,-12.779
-0.475,-0.075,-12.7
-0.475,-0.05,-12.118
-0.475,-0.025,-11.208
-0.475,0,-10.23
-0.475,0.025,-9.4647
-0.475,0.05,-9.1341
-0.475,0.075,-9.3312
-0.475,0.1,-9.9832
-0.475,0.125,-10.883
-0.475,0.15,-11.779
-0.475,0.175,-12.458
-0.475,0.2,14.886
-0.475,0.225,14.631
-0.475,0.25,14.531
-0.475,0.275,14.708
-0.475,0.3,15.174
-0.475,0.325,15.793
-0.475,0.35,16.34
-0.475,0.375,16.628
-0.475,0.4,16.625
-0.475,0.425,16.461
-0.475,0.45,16.334
-0.475,0.475,16.382
-0.475,0.5,16.641
-0.45,-0.5,16.886
-0.45,-0.475,16.895
-0.45,-0.45,17.238
-0.45,-0.425,17.707
-0.45,-0.4,17.972
-0.45,-0.375,17.79
-0.45,-0.35,17.164
-0.45,-0.325,16.358
-0.45,-0.3,15.744
-0.45,-0.275,15.599
-0.45,-0.25,15.952
-0.45,-0.225,-6.0505
-0.45,-0.2,-7.6108
-0.45,-0.175,-9.2766
-0.45,-0.15,-10.799
-0.45,-0.125,-11.952
-0.45,-0.1,-12.574
-0.45,-0.075,-12.602
-0.45,-0.05,-12.104
-0.45,-0.025,-11.262
-0.45,0,-10.333
-0.45,0.025,-9.5868
-0.45,0.05,-9.2277
-0.45,0.075,-9.3345
-0.45,0.1,-9.8359
-0.45,0.125,-10.553
-0.45,0.15,-11.288
-0.45,0.175,-11.888
-0.45,0.2,-12.241
-0.45,0.225,-12.234
-0.45,0.25,14.039
-0.45,0.275,14.021
-0.45,0.3,14.347
-0.45,0.325,14.914
-0.45,0.35,15.508
-0.45,0.375,15.938
-0.45,0.4,16.153
-0.45,0.425,16.248
-0.45,0.45,16.379
-0.45,0.475,16.644
-0.45,0.5,17.042
-0.425,-0.5,16.726
-0.425,-0.475,17.108
-0.425,-0.45,17.789
-0.425,-0.425,18.505
-0.425,-0.4,18.899
-0.425,-0.375,18.738
-0.425,-0.35,18.055
-0.425,-0.325,17.139
-0.425,-0.3,16.365
-0.425,-0.275,-3.3607
-0.425,-0.25,-3.787
-0.425,-0.225,-4.8874
-0.425,-0.2,-6.4893
-0.425,-0.175,-8.305
-0.425,-0.15,-10.012
-0.425,-0.125,-11.333
-0.425,-0.1,-12.089
-0.425,-0.075,-12.231
-0.425,-0.05,-11.84
-0.425,-0.025,-11.104
-0.425,0,-10.266
-0.425,0.025,-9.5683
-0.425,0.05,-9.1904
-0.425,0.075,-9.1971
-0.425,0.1,-9.5335
-0.425,0.125,-10.072
-0.425,0.15,-10.682
-0.425,0.175,-11.269
-0.425,0.2,-11.747
-0.425,0.225,-11.986
-0.425,0.25,-11.817
-0.425,0.275,-11.119
-0.425,0.3,13.446
-0.425,0.325,14.053
-0.425,0.35,14.825
-0.425,0.375,15.551
-0.425,0.4,16.134
-0.425,0.425,16.613
-0.425,0.45,17.075
-0.425,0.475,17.562
-0.425,0.5,18.039
-0.4,-0.5,17.09
-0.4,-0.475,17.888
-0.4,-0.45,18.904
-0.4,-0.425,19.83
-0.4,-0.4,20.307
-0.4,-0.375,20.123
-0.4,-0.35,19.344
-0.4,-0.325,18.271
-0.4,-0.3,-3.5978
-0.4,-0.275,-2.9607
-0.4,-0.25,-3.0718
-0.4,-0.225,-3.9706
-0.4,-0.2,-5.4932
-0.4,-0.175,-7.3215
-0.4,-0.15,-9.0861
-0.4,-0.125,-10.471
-0.4,-0.1,-11.282
-0.4,-0.075,-11.476
-0.4,-0.05,-11.145
-0.4,-0.025,-10.48
-0.4,0,-9.7178
-0.4,0.025,-9.0784
-0.4,0.05,-8.7142
-0.4,0.075,-8.6786
-0.4,0.1,-8.935
-0.4,0.125,-9.4031
-0.4,0.15,-10.009
-0.4,0.175,-10.695
-0.4,0.2,-11.374
-0.4,0.225,-11.891
-0.4,0.25,-12.043
-0.4,0.275,-11.682
-0.4,0.3,-10.84
-0.4,0.325,13.403
-0.4,0.35,14.425
-0.4,0.375,15.525
-0.4,0.4,16.548
-0.4,0.425,17.455
-0.4,0.45,18.251
-0.4,0.475,18.915
-0.4,0.5,19.389
-0.375,-0.5,17.706
-0.375,-0.475,18.879
-0.375,-0.45,20.173
-0.375,-0.425,21.261
-0.375,-0.4,21.798
-0.375,-0.375,21.604
-0.375,-0.35,20.758
-0.375,-0.325,-5.3706
-0.375,-0.3,-3.9481
-0.375,-0.275,-3.0099
-0.375,-0.25,-2.8177
-0.375,-0.225,-3.454
-0.375,-0.2,-4.7783
-0.375,-0.175,-6.4736
-0.375,-0.15,-8.1549
-0.375,-0.125,-9.4833
-0.375,-0.1,-10.246
-0.375,-0.075,-10.39
-0.375,-0.05,-10.012
-0.375,-0.025,-9.3186
-0.375,0,-8.56
-0.375,0.025,-7.9589
-0.375,0.05,-7.6568
-0.375,0.075,-7.6959
-0.375,0.1,-8.042
-0.375,0.125,-8.6311
-0.375,0.15,-9.4047
-0.375,0.175,-10.302
-0.375,0.2,-11.216
-0.375,0.225,-11.973
-0.375,0.25,-12.362
-0.375,0.275,-12.25
-0.375,0.3,-11.684
-0.375,0.325,-10.927
-0.375,0.35,14.313
-0.375,0.375,15.786
-0.375,0.4,17.238
-0.375,0.425,18.539
-0.375,0.45,19.611
-0.375,0.475,20.376
-0.375,0.5,20.768
-0.35,-0.5,18.249
-0.35,-0.475,19.664
-0.35,-0.45,21.122
-0.35,-0.425,22.298
-0.35,-0.4,22.88
-0.35,-0.375,22.721
-0.35,-0.35,-7.8197
-0.35,-0.325,-6.2472
-0.35,-0.3,-4.7158
-0.35,-0.275,-3.5699
-0.35,-0.25,-3.1011
-0.35,-0.225,-3.432
-0.35,-0.2,15.303
-0.35,-0.175,14.044
-0.35,-0.15,12.536
-0.35,-0.125,-8.5778
-0.35,-0.1,-9.2116
-0.35,-0.075,-9.216
-0.35,-0.05,-8.6835
-0.35,-0.025,-7.8468
-0.35,0,-7.0001
-0.35,0.025,-6.4031
-0.35,0.05,-6.2096
-0.35,0.075,-6.45
-0.35,0.1,-7.0667
-0.35,0.125,-7.9665
-0.35,0.15,-9.0536
-0.35,0.175,-10.224
-0.35,0.2,-11.343
-0.35,0.225,-12.234
-0.35,0.25,-12.728
-0.35,0.275,-12.745
-0.35,0.3,-12.372
-0.35,0.325,-11.871
-0.35,0.35,-11.585
-0.35,0.375,16.158
-0.35,0.4,17.958
-0.35,0.425,19.564
-0.35,0.45,20.817
-0.35,0.475,21.604
-0.35,0.5,21.866
-0.325,-0.5,18.499
-0.325,-0.475,19.967
-0.325,-0.45,21.432
-0.325,-0.425,22.588
-0.325,-0.4,23.179
-0.325,-0.375,-9.8712
-0.325,-0.35,-8.8062
-0.325,-0.325,-7.4046
-0.325,-0.3,-5.9042
-0.325,-0.275,-4.64
-0.325,-0.25,-3.9244
-0.325,-0.225,16.638
-0.325,-0.2,15.501
-0.325,-0.175,14.197
-0.325,-0.15,12.736
-0.325,-0.125,11.279
-0.325,-0.1,10.102
-0.325,-0.075,-8.2702
-0.325,-0.05,-7.5404
-0.325,-0.025,-6.504
-0.325,0,-5.5181
-0.325,0.025,-4.9037
-0.325,0.05,-4.8438
-0.325,0.075,-5.3579
-0.325,0.1,-6.3441
-0.325,0.125,-7.6442
-0.325,0.15,-9.0877
-0.325,0.175,-10.505
-0.325,0.2,-11.732
-0.325,0.225,-12.622
-0.325,0.25,-13.082
-0.325,0.275,-13.12
-0.325,0.3,-12.875
-0.325,0.325,-12.592
-0.325,0.35,-12.545
-0.325,0.375,-12.917
-0.325,0.4,18.494
-0.325,0.425,20.28
-0.325,0.45,21.614
-0.325,0.475,22.359
-0.325,0.5,22.482
-0.3,-0.5,18.417
-0.3,-0.475,19.751
-0.3,-0.45,21.057
-0.3,-0.425,22.07
-0.3,-0.4,-10.718
-0.3,-0.375,-10.508
-0.3,-0.35,-9.8706
-0.3,-0.325,-8.7919
-0.3,-0.3,-7.4426
-0.3,-0.275,-6.1346
-0.3,-0.25,-5.1978
-0.3,-0.225,17.058
-0.3,-0.2,15.979
-0.3,-0.175,14.788
-0.3,-0.15,13.488
-0.3,-0.125,12.191
-0.3,-0.1,11.095
-0.3,-0.075,10.422
-0.3,-0.05,10.337
-0.3,-0.025,-5.7014
-0.3,0,-4.6118
-0.3,0.025,-3.9961
-0.3,0.05,-4.0676
-0.3,0.075,-4.8356
-0.3,0.1,-6.1518
-0.3,0.125,-7.7873
-0.3,0.15,-9.4929
-0.3,0.175,-11.037
-0.3,0.2,-12.239
-0.3,0.225,-12.999
-0.3,0.25,-13.321
-0.3,0.275,-13.314
-0.3,0.3,-13.167
-0.3,0.325,-13.098
-0.3,0.35,-13.291
-0.3,0.375,-13.821
-0.3,0.4,-14.623
-0.3,0.425,20.603
-0.3,0.45,21.921
-0.3,0.475,22.579
-0.3,0.5,22.581
-0.275,-0.5,18.103
-0.275,-0.475,19.166
-0.275,-0.45,20.189
-0.275,-0.425,-10.259
-0.275,-0.4,-10.73
-0.275,-0.375,-11.045
-0.275,-0.35,-10.943
-0.275,-0.325,-10.29
-0.275,-0.3,-9.174
-0.275,-0.275,-7.8747
-0.275,-0.25,-6.7379
-0.275,-0.225,17.478
-0.275,-0.2,16.63
-0.275,-0.175,15.695
-0.275,-0.15,14.667
-0.275,-0.125,13.601
-0.275,-0.1,12.618
-0.275,-0.075,11.883
-0.275,-0.05,11.56
-0.275,-0.025,-5.6016
-0.275,0,-4.5305
-0.275,0.025,-3.973
-0.275,0.05,-4.1554
-0.275,0.075,-5.0779
-0.275,0.1,-6.563
-0.275,0.125,-8.338
-0.275,0.15,-10.106
-0.275,0.175,-11.6
-0.275,0.2,-12.643
-0.275,0.225,-13.184
-0.275,0.25,-13.32
-0.275,0.275,-13.251
-0.275,0.3,-13.21
-0.275,0.325,-13.382
-0.275,0.35,-13.849
-0.275,0.375,-14.568
-0.275,0.4,-15.396
-0.275,0.425,-16.133
-0.275,0.45,21.835
-0.275,0.475,22.369
-0.275,0.5,22.263
-0.25,-0.5,17.685
-0.25,-0.475,18.422
-0.25,-0.45,19.114
-0.25,-0.425,-9.7575
-0.25,-0.4,-10.621
-0.25,-0.375,-11.47
-0.25,-0.35,-11.922
-0.25,-0.325,-11.723
-0.25,-0.3,-10.872
-0.25,-0.275,-9.6121
-0.25,-0.25,-8.3004
-0.25,-0.225,17.82
-0.25,-0.2,17.314
-0.25,-0.175,16.735
-0.25,-0.15,16.067
-0.25,-0.125,15.311
-0.25,-0.1,14.509
-0.25,-0.075,13.763
-0.25,-0.05,13.228
-0.25,-0.025,13.076
-0.25,0,-5.165
-0.25,0.025,-4.7457
-0.25,0.05,-5.0147
-0.25,0.075,-5.9643
-0.25,0.1,-7.4145
-0.25,0.125,-9.0918
-0.25,0.15,-10.698
-0.25,0.175,-11.971
-0.25,0.2,-12.752
-0.25,0.225,-13.036
-0.25,0.25,-12.988
-0.25,0.275,-12.879
-0.25,0.3,-12.975
-0.25,0.325,-13.427
-0.25,0.35,-14.215
-0.25,0.375,-15.175
-0.25,0.4,-16.078
-0.25,0.425,-16.708
-0.25,0.45,21.533
-0.25,0.475,21.898
-0.25,0.5,21.678
-0.225,-0.5,17.236
-0.225,-0.475,17.671
-0.225,-0.45,-8.6273
-0.225,-0.425,-9.3042
-0.225,-0.4,-10.471
-0.225,-0.375,-11.759
-0.225,-0.35,-12.682
-0.225,-0.325,-12.88
-0.225,-0.3,-12.277
-0.225,-0.275,-11.076
-0.225,-0.25,-9.6345
-0.225,-0.225,18.05
-0.225,-0.2,17.906
-0.225,-0.175,17.719
-0.225,-0.15,17.458
-0.225,-0.125,17.073
-0.225,-0.1,16.528
-0.225,-0.075,15.858
-0.225,-0.05,15.193
-0.225,-0.025,14.736
-0.225,0,14.685
-0.225,0.025,-5.9165
-0.225,0.05,-6.2523
-0.225,0.075,-7.1314
-0.225,0.1,-8.3931
-0.225,0.125,-9.7973
-0.225,0.15,-11.083
-0.225,0.175,-12.023
-0.225,0.2,-12.492
-0.225,0.225,-12.523
-0.225,0.25,-12.326
-0.225,0.275,-12.218
-0.225,0.3,-12.485
-0.225,0.325,-13.242
-0.225,0.35,-14.377
-0.225,0.375,-15.612
-0.225,0.4,-16.629
-0.225,0.425,-17.189
-0.225,0.45,-17.169
-0.225,0.475,21.311
-0.225,0.5,20.952
-0.2,-0.5,16.757
-0.2,-0.475,16.974
-0.2,-0.45,-8.3667
-0.2,-0.425,-9.0287
-0.2,-0.4,-10.33
-0.2,-0.375,-11.863
-0.2,-0.35,-13.078
-0.2,-0.325,-13.549
-0.2,-0.3,-13.142
-0.2,-0.275,-12.021
-0.2,-0.25,-10.533
-0.2,-0.225,-9.0602
-0.2,-0.2,18.313
-0.2,-0.175,18.487
-0.2,-0.15,18.63
-0.2,-0.125,18.634
-0.2,-0.1,18.392
-0.2,-0.075,17.877
-0.2,-0.05,17.187
-0.2,-0.025,16.529
-0.2,0,16.14
-0.2,0.025,-6.9971
-0.2,0.05,-7.384
-0.2,0.075,-8.1573
-0.2,0.1,-9.181
-0.2,0.125,-10.258
-0.2,0.15,-11.177
-0.2,0.175,-11.759
-0.2,0.2,-11.919
-0.2,0.225,-11.73
-0.2,0.25,-11.431
-0.2,0.275,-11.365
-0.2,0.3,-11.822
-0.2,0.325,-12.878
-0.2,0.35,-14.34
-0.2,0.375,-15.829
-0.2,0.4,-16.952
-0.2,0.425,-17.449
-0.2,0.45,-17.232
-0.2,0.475,20.694
-0.2,0.5,20.18
-0.175,-0.5,16.239
-0.175,-0.475,-8.7662
-0.175,-0.45,-8.4915
-0.175,-0.425,-8.9912
-0.175,-0.4,-10.207
-0.175,-0.375,-11.728
-0.175,-0.35,-12.997
-0.175,-0.325,-13.571
-0.175,-0.3,-13.287
-0.175,-0.275,-12.279
-0.175,-0.25,-10.86
-0.175,-0.225,-9.4
-0.175,-0.2,18.483
-0.175,-0.175,18.937
-0.175,-0.15,19.426
-0.175,-0.125,19.781
-0.175,-0.1,19.832
-0.175,-0.075,19.505
-0.175,-0.05,18.876
-0.175,-0.025,18.143
-0.175,0,17.543
-0.175,0.025,-7.6374
-0.175,0.05,-8.0595
-0.175,0.075,-8.7479
-0.175,0.1,-9.5802
-0.175,0.125,-10.387
-0.175,0.15,-10.993
-0.175,0.175,-11.265
-0.175,0.2,-11.166
-0.175,0.225,-10.807
-0.175,0.25,-10.459
-0.175,0.275,-10.473
-0.175,0.3,-11.121
-0.175,0.325,-12.434
-0.175,0.35,-14.145
-0.175,0.375,-15.8
-0.175,0.4,-16.956
-0.175,0.425,-17.35
-0.175,0.45,-16.935
-0.175,0.475,-15.827
-0.175,0.5,19.447
-0.15,-0.5,15.708
-0.15,-0.475,-9.5305
-0.15,-0.45,-8.9949
-0.15,-0.425,-9.1994
-0.15,-0.4,-10.107
-0.15,-0.375,-11.349
-0.15,-0.35,-12.418
-0.15,-0.325,-12.909
-0.15,-0.3,-12.668
-0.15,-0.275,-11.799
-0.15,-0.25,-10.574
-0.15,-0.225,-9.3177
-0.15,-0.2,-8.3129
-0.15,-0.175,19.032
-0.15,-0.15,19.77
-0.15,-0.125,20.386
-0.15,-0.1,20.66
-0.15,-0.075,20.497
-0.15,-0.05,19.971
-0.15,-0.025,19.272
-0.15,0,18.612
-0.15,0.025,18.141
-0.15,0.05,-8.1837
-0.15,0.075,-8.8311
-0.15,0.1,-9.5592
-0.15,0.125,-10.202
-0.15,0.15,-10.599
-0.15,0.175,-10.65
-0.15,0.2,-10.369
-0.15,0.225,-9.9135
-0.15,0.25,-9.5785
-0.15,0.275,-9.707
-0.15,0.3,-10.534
-0.15,0.325,-12.03
-0.15,0.35,-13.869
-0.15,0.375,-15.55
-0.15,0.4,-16.618
-0.15,0.425,-16.834
-0.15,0.45,-16.207
-0.15,0.475,-14.917
-0.15,0.5,18.856
-0.125,-0.5,15.221
-0.125,-0.475,-10.587
-0.125,-0.45,-9.8098
-0.125,-0.425,-9.6423
-0.125,-0.4,-10.075
-0.125,-0.375,-10.819
-0.125,-0.35,-11.47
-0.125,-0.325,-11.708
-0.125,-0.3,-11.418
-0.125,-0.275,-10.691
-0.125,-0.25,-9.7477
-0.125,-0.225,-8.8425
-0.125,-0.2,-8.1846
-0.125,-0.175,-7.8717
-0.125,-0.15,19.674
-0.125,-0.125,20.428
-0.125,-0.1,20.814
-0.125,-0.075,20.742
-0.125,-0.05,20.308
-0.125,-0.025,19.708
-0.125,0,19.12
-0.125,0.025,-7.452
-0.125,0.05,-7.8917
-0.125,0.075,-8.529
-0.125,0.1,-9.2201
-0.125,0.125,-9.7866
-0.125,0.15,-10.071
-0.125,0.175,-10
-0.125,0.2,-9.6328
-0.125,0.225,18.56
-0.125,0.25,18.358
-0.125,0.275,18.059
-0.125,0.3,17.798
-0.125,0.325,-11.783
-0.125,0.35,-13.61
-0.125,0.375,-15.162
-0.125,0.4,-16.014
-0.125,0.425,-15.982
-0.125,0.45,-15.139
-0.125,0.475,-13.723
-0.125,0.5,18.501
-0.1,-0.5,-12.867
-0.1,-0.475,-11.771
-0.1,-0.45,-10.829
-0.1,-0.425,-10.293
-0.1,-0.4,-10.185
-0.1,-0.375,-10.315
-0.1,-0.35,-10.413
-0.1,-0.325,-10.275
-0.1,-0.3,-9.8482
-0.1,-0.275,-9.2244
-0.1,-0.25,-8.5736
-0.1,-0.225,-8.0697
-0.1,-0.2,-7.8254
-0.1,-0.175,-7.8459
-0.1,-0.15,-8.0188
-0.1,-0.125,19.984
-0.1,-0.1,20.359
-0.1,-0.075,20.28
-0.1,-0.05,19.883
-0.1,-0.025,19.386
-0.1,0,18.94
-0.1,0.025,-6.998
-0.1,0.05,-7.4264
-0.1,0.075,-8.0573
-0.1,0.1,-8.7316
-0.1,0.125,-9.2618
-0.1,0.15,-9.4959
-0.1,0.175,18.558
-0.1,0.2,18.919
-0.1,0.225,19.084
-0.1,0.25,18.994
-0.1,0.275,18.7
-0.1,0.3,18.334
-0.1,0.325,18.078
-0.1,0.35,-13.455
-0.1,0.375,-14.758
-0.1,0.4,-15.311
-0.1,0.425,-15.002
-0.1,0.45,-13.97
-0.1,0.475,-12.498
-0.1,0.5,-10.898
-0.075,-0.5,-13.864
-0.075,-0.475,-12.894
-0.075,-0.45,-11.898
-0.075,-0.425,-11.075
-0.075,-0.4,-10.475
-0.075,-0.375,-10.01
-0.075,-0.35,-9.5405
-0.075,-0.325,-8.9841
-0.075,-0.3,-8.3586
-0.075,-0.275,-7.7666
-0.075,-0.25,-7.3381
-0.075,-0.225,-7.1685
-0.075,-0.2,-7.273
-0.075,-0.175,-7.5685
-0.075,-0.15,-7.8916
-0.075,-0.125,-8.0584
-0.075,-0.1,-7.9503
-0.075,-0.075,-7.5784
-0.075,-0.05,18.829
-0.075,-0.025,-6.6576
-0.075,0,-6.4696
-0.075,0.025,-6.5949
-0.075,0.05,-7.0146
-0.075,0.075,-7.6276
-0.075,0.1,-8.2731
-0.075,0.125,-8.7701
-0.075,0.15,18.081
-0.075,0.175,18.687
-0.075,0.2,19.252
-0.075,0.225,19.573
-0.075,0.25,19.555
-0.075,0.275,19.228
-0.075,0.3,18.73
-0.075,0.325,18.271
-0.075,0.35,18.065
-0.075,0.375,-14.468
-0.075,0.4,-14.711
-0.075,0.425,-14.158
-0.075,0.45,-12.997
-0.075,0.475,-11.531
-0.075,0.5,-10.06
-0.05,-0.5,-14.5
-0.05,-0.475,-13.749
-0.05,-0.45,-12.808
-0.05,-0.425,-11.83
-0.05,-0.4,-10.888
-0.05,-0.375,-9.971
-0.05,-0.35,-9.0488
-0.05,-0.325,-8.1318
-0.05,-0.3,-7.2983
-0.05,-0.275,-6.6676
-0.05,-0.25,-6.3422
-0.05,-0.225,-6.3548
-0.05,-0.2,-6.6427
-0.05,-0.175,-7.0615
-0.05,-0.15,-7.4281
-0.05,-0.125,-7.5842
-0.05,-0.1,-7.4589
-0.05,-0.075,-7.1013
-0.05,-0.05,-6.6592
-0.05,-0.025,-6.3121
-0.05,0,-6.1972
-0.05,0.025,-6.3701
-0.05,0.05,-6.8026
-0.05,0.075,-7.3968
-0.05,0.1,-8.0054
-0.05,0.125,-8.4686
-0.05,0.15,18.025
-0.05,0.175,18.843
-0.05,0.2,19.584
-0.05,0.225,20.018
-0.05,0.25,20.028
-0.05,0.275,19.639
-0.05,0.3,18.998
-0.05,0.325,18.343
-0.05,0.35,17.928
-0.05,0.375,-14.384
-0.05,0.4,-14.384
-0.05,0.425,-13.667
-0.05,0.45,-12.449
-0.05,0.475,-11.023
-0.05,0.5,-9.6612
-0.025,-0.5,-14.628
-0.025,-0.475,-14.135
-0.025,-0.45,-13.334
-0.025,-0.425,-12.347
-0.025,-0.4,-11.263
-0.025,-0.375,-10.123
-0.025,-0.35,-8.9567
-0.025,-0.325,-7.8252
-0.025,-0.3,-6.8418
-0.025,-0.275,-6.138
-0.025,-0.25,-5.8027
-0.025,-0.225,-5.8292
-0.025,-0.2,-6.109
-0.025,-0.175,-6.4728
-0.025,-0.15,-6.7544
-0.025,-0.125,-6.8459
-0.025,-0.1,-6.7286
-0.025,-0.075,-6.4713
-0.025,-0.05,-6.1994
-0.025,-0.025,-6.0429
-0.025,0,-6.0912
-0.025,0.025,-6.3722
-0.025,0.05,-6.8541
-0.025,0.075,-7.4537
-0.025,0.1,-8.0473
-0.025,0.125,-8.4993
-0.025,0.15,17.97
-0.025,0.175,19.007
-0.025,0.2,19.9
-0.025,0.225,20.411
-0.025,0.25,20.425
-0.025,0.275,19.968
-0.025,0.3,19.198
-0.025,0.325,18.368
-0.025,0.35,17.762
-0.025,0.375,-14.533
-0.025,0.4,-14.393
-0.025,0.425,-13.613
-0.025,0.45,-12.402
-0.025,0.475,-11.02
-0.025,0.5,-9.6977
0,-0.5,-14.163
0,-0.475,-13.92
0,-0.45,-13.309
0,-0.425,-12.442
0,-0.4,-11.418
0,-0.375,-10.301
0,-0.35,-9.1308
0,-0.325,-7.9757
0,-0.3,-6.9516
0,-0.275,-6.1939
0,-0.25,-5.7882
0,-0.225,-5.7131
0,-0.2,-5.8451
0,-0.175,-6.022
0,-0.15,-6.1205
0,-0.125,-6.0981
0,-0.1,-5.9885
0,-0.075,-5.8692
0,-0.05,-5.8241
0,-0.025,-5.9166
0,0,-6.1777
0,0.025,-6.6068
0,0.05,-7.1753
0,0.075,-7.8228
0,0.1,-8.4516
0,0.125,-8.943
0,0.15,17.887
0,0.175,19.134
0,0.2,20.166
0,0.225,20.752
0,0.25,20.783
0,0.275,20.288
0,0.3,19.426
0,0.325,18.453
0,0.35,17.663
0,0.375,-14.841
0,0.4,-14.658
0,0.425,-13.904
0,0.45,-12.754
0,0.475,-11.412
0,0.5,-10.062
0.025,-0.5,-13.125
0.025,-0.475,-13.105
0.025,-0.45,-12.71
0.025,-0.425,-12.056
0.025,-0.4,-11.254
0.025,-0.375,-10.362
0.025,-0.35,-9.3977
0.025,-0.325,-8.3965
0.025,-0.3,-7.4539
0.025,-0.275,-6.7021
0.025,-0.25,-6.2313
0.025,-0.225,-6.0237
0.025,-0.2,-5.9614
0.025,-0.175,-5.9062
0.025,-0.15,-5.7856
0.025,-0.125,-5.6232
0.025,-0.1,-5.5025
0.025,-0.075,-5.5069
0.025,-0.05,-5.6778
0.025,-0.025,-6.0119
0.025,0,-6.4832
0.025,0.025,-7.0665
0.025,0.05,-7.7418
0.025,0.075,-8.4757
0.025,0.1,-9.1954
0.025,0.125,-9.7885
0.025,0.15,17.74
0.025,0.175,19.163
0.025,0.2,20.333
0.025,0.225,21.024
0.025,0.25,21.126
0.025,0.275,20.658
0.025,0.3,19.763
0.025,0.325,18.682
0.025,0.35,17.704
0.025,0.375,-15.146
0.025,0.4,-14.977
0.025,0.425,-14.312
0.025,0.45,-13.27
0.025,0.475,-11.991
0.025,0.5,-10.595
0.05,-0.5,-11.666
0.05,-0.475,-11.848
0.05,-0.45,-11.684
0.05,-0.425,-11.304
0.05,-0.4,-10.827
0.05,-0.375,-10.291
0.05,-0.35,-9.6649
0.05,-0.325,-8.9362
0.05,-0.3,-8.1685
0.05,-0.275,-7.489
0.05,-0.25,-6.999
0.05,-0.225,-6.6943
0.05,-0.2,-6.4716
0.05,-0.175,-6.2171
0.05,-0.15,-5.9012
0.05,-0.125,-5.6026
0.05,-0.1,-5.4492
0.05,-0.075,-5.5335
0.05,-0.05,-5.866
0.05,-0.025,-6.3891
0.05,0,-7.0295
0.05,0.025,-7.7428
0.05,0.05,-8.5201
0.05,0.075,-9.3554
0.05,0.1,-10.199
0.05,0.125,-10.94
0.05,0.15,-11.448
0.05,0.175,19.045
0.05,0.2,20.349
0.05,0.225,21.187
0.05,0.25,21.429
0.05,0.275,21.065
0.05,0.3,20.201
0.05,0.325,19.049
0.05,0.35,17.879
0.05,0.375,-15.252
0.05,0.4,-15.103
0.05,0.425,-14.555
0.05,0.45,-13.668
0.05,0.475,-12.499
0.05,0.5,-11.106
0.075,-0.5,-10.031
0.075,-0.475,-10.412
0.075,-0.45,-10.495
0.075,-0.425,-10.428
0.075,-0.4,-10.327
0.075,-0.375,-10.199
0.075,-0.35,-9.9613
0.075,-0.325,-9.548
0.075,-0.3,-8.9938
0.075,-0.275,-8.4245
0.075,-0.25,-7.9579
0.075,-0.225,-7.6091
0.075,-0.2,-7.2905
0.075,-0.175,-6.9057
0.075,-0.15,-6.4529
0.075,-0.125,-6.0484
0.075,-0.1,-5.8549
0.075,-0.075,-5.978
0.075,-0.05,-6.4111
0.075,-0.025,-7.0604
0.075,0,-7.8176
0.075,0.025,-8.6235
0.075,0.05,-9.4782
0.075,0.075,-10.4
0.075,0.1,-11.36
0.075,0.125,-12.249
0.075,0.15,-12.915
0.075,0.175,-13.253
0.075,0.2,20.169
0.075,0.225,21.173
0.075,0.25,21.606
0.075,0.275,21.406
0.075,0.3,20.625
0.075,0.325,19.433
0.075,0.35,-14.895
0.075,0.375,-15.007
0.075,0.4,-14.844
0.075,0.425,-14.408
0.075,0.45,-13.695
0.075,0.475,-12.69
0.075,0.5,-11.384
0.1,-0.5,-8.4718
0.1,-0.475,-9.0665
0.1,-0.45,-9.4187
0.1,-0.425,-9.6834
0.1,-0.4,-9.967
0.1,-0.375,-10.24
0.1,-0.35,-10.371
0.1,-0.325,-10.249
0.1,-0.3,-9.889
0.1,-0.275,-9.4217
0.1,-0.25,-8.9857
0.1,-0.225,-8.6198
0.1,-0.2,-8.2543
0.1,-0.175,-7.8054
0.1,-0.15,-7.2843
0.1,-0.125,-6.8256
0.1,-0.1,-6.6116
0.1,-0.075,-6.7586
0.1,-0.05,-7.2536
0.1,-0.025,-7.982
0.1,0,-8.8137
0.1,0.025,-9.6776
0.1,0.05,-10.577
0.1,0.075,-11.545
0.1,0.1,-12.569
0.1,0.125,-13.55
0.1,0.15,-14.32
0.1,0.175,-14.743
0.1,0.2,-14.809
0.1,0.225,-14.655
0.1,0.25,21.53
0.1,0.275,-14.397
0.1,0.3,-14.427
0.1,0.325,-14.484
0.1,0.35,-14.481
0.1,0.375,-14.371
0.1,0.4,-14.138
0.1,0.425,-13.764
0.1,0.45,-13.201
0.1,0.475,-12.378
0.1,0.5,-11.238
0.125,-0.5,13.353
0.125,-0.475,-7.9974
0.125,-0.45,-8.6368
0.125,-0.425,-9.2331
0.125,-0.4,-9.8736
0.125,-0.375,-10.494
0.125,-0.35,-10.924
0.125,-0.325,-11.024
0.125,-0.3,-10.797
0.125,-0.275,-10.385
0.125,-0.25,-9.9501
0.125,-0.225,-9.5589
0.125,-0.2,-9.1667
0.125,-0.175,-8.7034
0.125,-0.15,-8.1836
0.125,-0.125,-7.7399
0.125,-0.1,17.227
0.125,-0.075,16.317
0.125,-0.05,15.602
0.125,-0.025,15.157
0.125,0,14.937
0.125,0.025,-10.836
0.125,0.05,-11.744
0.125,0.075,-12.702
0.125,0.1,-13.707
0.125,0.125,-14.67
0.125,0.15,-15.433
0.125,0.175,-15.85
0.125,0.2,-15.883
0.125,0.225,-15.624
0.125,0.25,-15.234
0.125,0.275,-14.839
0.125,0.3,-14.48
0.125,0.325,-14.137
0.125,0.35,-13.786
0.125,0.375,-13.427
0.125,0.4,-13.063
0.125,0.425,-12.67
0.125,0.45,-12.183
0.125,0.475,-11.511
0.125,0.5,15.884
0.15,-0.5,13.924
0.15,-0.475,-7.2756
0.15,-0.45,-8.2054
0.15,-0.425,-9.1085
0.15,-0.4,-10.046
0.15,-0.375,-10.925
0.15,-0.35,-11.553
0.15,-0.325,-11.78
0.15,-0.3,-11.611
0.15,-0.275,-11.196
0.15,-0.25,-10.72
0.15,-0.225,-10.282
0.15,-0.2,-9.8693
0.15,-0.175,-9.4315
0.15,-0.15,-8.9811
0.15,-0.125,18.337
0.15,-0.1,17.42
0.15,-0.075,16.585
0.15,-0.05,15.984
0.15,-0.025,15.677
0.15,0,15.587
0.15,0.025,15.56
0.15,0.05,-12.848
0.15,0.075,-13.733
0.15,0.1,-14.624
0.15,0.125,-15.448
0.15,0.15,-16.07
0.15,0.175,-16.368
0.15,0.2,-16.301
0.15,0.225,-15.935
0.15,0.25,-15.396
0.15,0.275,-14.792
0.15,0.3,-14.171
0.15,0.325,-13.545
0.15,0.35,-12.926
0.15,0.375,-12.34
0.15,0.4,-11.806
0.15,0.425,-11.311
0.15,0.45,-10.809
0.15,0.475,-10.231
0.15,0.5,14.805
0.175,-0.5,14.434
0.175,-0.475,-6.902
0.175,-0.45,-8.0991
0.175,-0.425,-9.2585
0.175,-0.4,-10.407
0.175,-0.375,-11.435
0.175,-0.35,-12.148
0.175,-0.325,-12.407
0.175,-0.3,-12.228
0.175,-0.275,-11.77
0.175,-0.25,-11.231
0.175,-0.225,-10.736
0.175,-0.2,-10.311
0.175,-0.175,19.73
0.175,-0.15,18.979
0.175,-0.125,18.157
0.175,-0.1,17.308
0.175,-0.075,16.572
0.175,-0.05,16.105
0.175,-0.025,15.959
0.175,0,16.032
0.175,0.025,16.124
0.175,0.05,-13.71
0.175,0.075,-14.46
0.175,0.1,-15.164
0.175,0.125,-15.757
0.175,0.15,-16.141
0.175,0.175,-16.23
0.175,0.2,-16.009
0.175,0.225,-15.54
0.175,0.25,-14.922
0.175,0.275,-14.236
0.175,0.3,-13.518
0.175,0.325,-12.774
0.175,0.35,-12.021
0.175,0.375,-11.284
0.175,0.4,-10.595
0.175,0.425,-9.9676
0.175,0.45,-9.3968
0.175,0.475,-8.8642
0.175,0.5,13.66
0.2,-0.5,14.772
0.2,-0.475,13.812
0.2,-0.45,-8.2834
0.2,-0.425,-9.6289
0.2,-0.4,-10.894
0.2,-0.375,-11.959
0.2,-0.35,-12.653
0.2,-0.325,-12.869
0.2,-0.3,-12.642
0.2,-0.275,-12.132
0.2,-0.25,-11.536
0.2,-0.225,-10.993
0.2,-0.2,-10.563
0.2,-0.175,19.127
0.2,-0.15,18.438
0.2,-0.125,17.708
0.2,-0.1,16.973
0.2,-0.075,16.375
0.2,-0.05,16.068
0.2,-0.025,16.097
0.2,0,16.334
0.2,0.025,16.542
0.2,0.05,-14.15
0.2,0.075,-14.721
0.2,0.1,-15.204
0.2,0.125,-15.539
0.2,0.15,-15.654
0.2,0.175,-15.504
0.2,0.2,-15.106
0.2,0.225,-14.537
0.2,0.25,-13.891
0.2,0.275,-13.228
0.2,0.3,-12.558
0.2,0.325,-11.866
0.2,0.35,-11.139
0.2,0.375,-10.385
0.2,0.4,-9.6371
0.2,0.425,-8.9355
0.2,0.45,-8.3201
0.2,0.475,11.336
0.2,0.5,12.575
0.225,-0.5,14.938
0.225,-0.475,14.014
0.225,-0.45,-8.7474
0.225,-0.425,-10.201
0.225,-0.4,-11.496
0.225,-0.375,-12.513
0.225,-0.35,-13.117
0.225,-0.325,-13.248
0.225,-0.3,-12.964
0.225,-0.275,-12.418
0.225,-0.25,-11.787
0.225,-0.225,-11.207
0.225,-0.2,18.902
0.225,-0.175,18.285
0.225,-0.15,17.713
0.225,-0.125,17.123
0.225,-0.1,16.548
0.225,-0.075,16.123
0.225,-0.05,15.997
0.225,-0.025,16.198
0.225,0,16.575
0.225,0.025,16.86
0.225,0.05,-14.058
0.225,0.075,-14.436
0.225,0.1,-14.713
0.225,0.125,-14.824
0.225,0.15,-14.703
0.225,0.175,-14.331
0.225,0.2,-13.757
0.225,0.225,-13.085
0.225,0.25,-12.424
0.225,0.275,-11.837
0.225,0.3,-11.318
0.225,0.325,-10.817
0.225,0.35,-10.282
0.225,0.375,-9.6892
0.225,0.4,-9.055
0.225,0.425,-8.4279
0.225,0.45,-7.8694
0.225,0.475,10.654
0.225,0.5,11.751
0.25,-0.5,15.027
0.25,-0.475,14.336
0.25,-0.45,14.273
0.25,-0.425,-10.965
0.25,-0.4,-12.23
0.25,-0.375,-13.15
0.25,-0.35,-13.634
0.25,-0.325,-13.67
0.25,-0.3,-13.339
0.25,-0.275,-12.777
0.25,-0.25,-12.125
0.25,-0.225,18.584
0.25,-0.2,17.918
0.25,-0.175,17.41
0.25,-0.15,16.976
0.25,-0.125,16.541
0.25,-0.1,16.139
0.25,-0.075,15.901
0.25,-0.05,15.96
0.25,-0.025,16.318
0.25,0,16.8
0.25,0.025,-13.2
0.25,0.05,-13.439
0.25,0.075,-13.643
0.25,0.1,-13.763
0.25,0.125,-13.716
0.25,0.15,-13.421
0.25,0.175,-12.864
0.25,0.2,-12.118
0.25,0.225,-11.326
0.25,0.25,-10.636
0.25,0.275,-10.134
0.25,0.3,-9.8156
0.25,0.325,-9.6068
0.25,0.35,-9.4135
0.25,0.375,-9.1684
0.25,0.4,-8.8534
0.25,0.425,-8.4922
0.25,0.45,10.102
0.25,0.475,10.442
0.25,0.5,11.385
0.275,-0.5,15.149
0.275,-0.475,14.831
0.275,-0.45,15.057
0.275,-0.425,-11.862
0.275,-0.4,-13.069
0.275,-0.375,-13.881
0.275,-0.35,-14.247
0.275,-0.325,-14.197
0.275,-0.3,-13.827
0.275,-0.275,-13.251
0.275,-0.25,-12.57
0.275,-0.225,17.733
0.275,-0.2,17.125
0.275,-0.175,16.71
0.275,-0.15,16.378
0.275,-0.125,16.056
0.275,-0.1,15.79
0.275,-0.075,15.713
0.275,-0.05,15.939
0.275,-0.025,16.435
0.275,0,17.002
0.275,0.025,-12.353
0.275,0.05,-12.411
0.275,0.075,-12.479
0.275,0.1,-12.501
0.275,0.125,-12.36
0.275,0.15,-11.948
0.275,0.175,-11.238
0.275,0.2,-10.323
0.275,0.225,-9.391
0.275,0.25,-8.646
0.275,0.275,-8.2172
0.275,0.3,-8.1169
0.275,0.325,-8.2585
0.275,0.35,-8.5119
0.275,0.375,-8.7613
0.275,0.4,-8.9345
0.275,0.425,-8.9971
0.275,0.45,10.557
0.275,0.475,10.781
0.275,0.5,11.557
0.3,-0.5,15.345
0.3,-0.475,15.442
0.3,-0.45,15.995
0.3,-0.425,17.058
0.3,-0.4,-13.899
0.3,-0.375,-14.616
0.3,-0.35,-14.88
0.3,-0.325,-14.753
0.3,-0.3,-14.339
0.3,-0.275,-13.734
0.3,-0.25,-13.007
0.3,-0.225,17.287
0.3,-0.2,16.71
0.3,-0.175,16.325
0.3,-0.15,16.008
0.3,-0.125,15.704
0.3,-0.1,15.489
0.3,-0.075,15.509
0.3,-0.05,15.86
0.3,-0.025,16.474
0.3,0,-11.342
0.3,0.025,-11.242
0.3,0.05,-11.158
0.3,0.075,-11.13
0.3,0.1,-11.096
0.3,0.125,-10.907
0.3,0.15,-10.417
0.3,0.175,-9.5794
0.3,0.2,-8.5035
0.3,0.225,-7.4276
0.3,0.25,-6.6167
0.3,0.275,-6.2514
0.3,0.3,-6.3694
0.3,0.325,-6.8792
0.3,0.35,-7.6204
0.3,0.375,-8.4269
0.3,0.4,-9.1598
0.3,0.425,11.914
0.3,0.45,11.484
0.3,0.475,11.579
0.3,0.5,12.166
0.325,-0.5,15.552
0.325,-0.475,16.01
0.325,-0.45,16.849
0.325,-0.425,18.054
0.325,-0.4,19.413
0.325,-0.375,-15.171
0.325,-0.35,-15.349
0.325,-0.325,-15.149
0.325,-0.3,-14.682
0.325,-0.275,-14.034
0.325,-0.25,-13.256
0.325,-0.225,17.329
0.325,-0.2,16.745
0.325,-0.175,16.312
0.325,-0.15,15.905
0.325,-0.125,15.506
0.325,-0.1,15.235
0.325,-0.075,15.262
0.325,-0.05,15.672
0.325,-0.025,-10.406
0.325,0,-10.286
0.325,0.025,-10.072
0.325,0.05,-9.8798
0.325,0.075,-9.7755
0.325,0.1,-9.7019
0.325,0.125,-9.4883
0.325,0.15,-8.9495
0.325,0.175,-8.0165
0.325,0.2,-6.8115
0.325,0.225,-5.6177
0.325,0.25,-4.7585
0.325,0.275,-4.4632
0.325,0.3,-4.7933
0.325,0.325,-5.6535
0.325,0.35,-6.8548
0.325,0.375,-8.1808
0.325,0.4,13.901
0.325,0.425,13.127
0.325,0.45,12.65
0.325,0.475,12.602
0.325,0.5,12.975
0.35,-0.5,15.658
0.35,-0.475,16.35
0.35,-0.45,17.371
0.35,-0.425,18.65
0.35,-0.4,19.973
0.35,-0.375,21.031
0.35,-0.35,-15.438
0.35,-0.325,-15.172
0.35,-0.3,-14.659
0.35,-0.275,-13.983
0.35,-0.25,-13.185
0.35,-0.225,17.818
0.35,-0.2,17.209
0.35,-0.175,16.674
0.35,-0.15,16.107
0.35,-0.125,15.532
0.35,-0.1,15.114
0.35,-0.075,15.054
0.35,-0.05,-9.4465
0.35,-0.025,-9.4629
0.35,0,-9.3086
0.35,0.025,-9.0248
0.35,0.05,-8.7415
0.35,0.075,-8.5595
0.35,0.1,-8.4437
0.35,0.125,-8.2145
0.35,0.15,-7.6566
0.35,0.175,-6.6761
0.35,0.2,-5.3992
0.35,0.225,-4.1433
0.35,0.25,-3.2801
0.35,0.275,-3.0781
0.35,0.3,-3.6142
0.35,0.325,-4.7824
0.35,0.35,-6.3611
0.35,0.375,15.745
0.35,0.4,15.042
0.35,0.425,14.309
0.35,0.45,13.775
0.35,0.475,13.578
0.35,0.5,13.73
0.375,-0.5,15.582
0.375,-0.475,16.348
0.375,-0.45,17.425
0.375,-0.425,18.701
0.375,-0.4,19.973
0.375,-0.375,20.991
0.375,-0.35,21.533
0.375,-0.325,-14.696
0.375,-0.3,-14.172
0.375,-0.275,-13.519
0.375,-0.25,-12.773
0.375,-0.225,-11.947
0.375,-0.2,18.036
0.375,-0.175,17.404
0.375,-0.15,16.675
0.375,-0.125,15.91
0.375,-0.1,-8.5814
0.375,-0.075,-8.5367
0.375,-0.05,-8.6322
0.375,-0.025,-8.6796
0.375,0,-8.5385
0.375,0.025,-8.2153
0.375,0.05,-7.8495
0.375,0.075,-7.5833
0.375,0.1,-7.4189
0.375,0.125,-7.1835
0.375,0.15,-6.6397
0.375,0.175,-5.6672
0.375,0.2,-4.3864
0.375,0.225,-3.1362
0.375,0.25,-2.3237
0.375,0.275,-2.2448
0.375,0.3,-2.9796
0.375,0.325,-4.3989
0.375,0.35,16.95
0.375,0.375,16.631
0.375,0.4,15.989
0.375,0.425,15.265
0.375,0.45,14.671
0.375,0.475,14.337
0.375,0.5,14.29
0.4,-0.5,15.323
0.4,-0.475,16.009
0.4,-0.45,17.031
0.4,-0.425,18.244
0.4,-0.4,19.466
0.4,-0.375,20.501
0.4,-0.35,21.18
0.4,-0.325,21.412
0.4,-0.3,-13.287
0.4,-0.275,-12.733
0.4,-0.25,-12.125
0.4,-0.225,-11.451
0.4,-0.2,-10.704
0.4,-0.175,-9.898
0.4,-0.15,-9.0996
0.4,-0.125,-8.4268
0.4,-0.1,-8.0103
0.4,-0.075,-7.9026
0.4,-0.05,-8.006
0.4,-0.025,-8.1035
0.4,0,-7.9997
0.4,0.025,-7.662
0.4,0.05,-7.2342
0.4,0.075,-6.8981
0.4,0.1,-6.6981
0.4,0.125,-6.4768
0.4,0.15,-5.9819
0.4,0.175,-5.0674
0.4,0.2,-3.8411
0.4,0.225,-2.6532
0.4,0.25,-1.9346
0.4,0.275,-1.9969
0.4,0.3,-2.9109
0.4,0.325,17.487
0.4,0.35,17.668
0.4,0.375,17.349
0.4,0.4,16.701
0.4,0.425,15.954
0.4,0.45,15.308
0.4,0.475,14.874
0.4,0.5,14.68
0.425,-0.5,14.951
0.425,-0.475,15.442
0.425,-0.45,16.332
0.425,-0.425,17.455
0.425,-0.4,18.642
0.425,-0.375,19.74
0.425,-0.35,20.612
0.425,-0.325,21.163
0.425,-0.3,21.374
0.425,-0.275,-11.855
0.425,-0.25,-11.45
0.425,-0.225,-10.988
0.425,-0.2,-10.415
0.425,-0.175,-9.707
0.425,-0.15,-8.9102
0.425,-0.125,-8.162
0.425,-0.1,-7.6443
0.425,-0.075,-7.4649
0.425,-0.05,-7.5546
0.425,-0.025,-7.6841
0.425,0,-7.6197
0.425,0.025,-7.2962
0.425,0.05,-6.854
0.425,0.075,-6.5006
0.425,0.1,-6.3117
0.425,0.125,-6.1438
0.425,0.15,-5.7347
0.425,0.175,-4.9173
0.425,0.2,-3.7858
0.425,0.225,-2.693
0.425,0.25,-2.0828
0.425,0.275,-2.2723
0.425,0.3,17.647
0.425,0.325,18.249
0.425,0.35,18.347
0.425,0.375,17.958
0.425,0.4,17.257
0.425,0.425,16.473
0.425,0.45,15.791
0.425,0.475,15.305
0.425,0.5,15.027
0.45,-0.5,14.579
0.45,-0.475,14.813
0.45,-0.45,15.53
0.45,-0.425,16.558
0.45,-0.4,17.73
0.45,-0.375,18.907
0.45,-0.35,19.966
0.45,-0.325,20.803
0.45,-0.3,21.36
0.45,-0.275,21.643
0.45,-0.25,21.703
0.45,-0.225,-10.76
0.45,-0.2,-10.356
0.45,-0.175,-9.7406
0.45,-0.15,-8.9466
0.45,-0.125,-8.124
0.45,-0.1,-7.4907
0.45,-0.075,-7.2001
0.45,-0.05,-7.2181
0.45,-0.025,-7.3279
0.45,0,-7.2859
0.45,0.025,-7.0079
0.45,0.05,-6.6221
0.45,0.075,-6.3369
0.45,0.1,-6.2362
0.45,0.125,-6.1804
0.45,0.15,-5.9011
0.45,0.175,-5.2174
0.45,0.2,-4.2102
0.45,0.225,-3.2255
0.45,0.25,17.048
0.45,0.275,17.777
0.45,0.3,18.56
0.45,0.325,19.039
0.45,0.35,19.025
0.45,0.375,18.54
0.45,0.4,17.769
0.45,0.425,16.944
0.45,0.45,16.244
0.45,0.475,15.745
0.45,0.5,15.44
0.475,-0.5,14.336
0.475,-0.475,14.303
0.475,-0.45,14.835
0.475,-0.425,15.763
0.475,-0.4,16.914
0.475,-0.375,18.141
0.475,-0.35,19.319
0.475,-0.325,20.335
0.475,-0.3,21.115
0.475,-0.275,21.632
0.475,-0.25,21.901
0.475,-0.225,21.947
0.475,-0.2,21.788
0.475,-0.175,-10.075
0.475,-0.15,-9.2549
0.475,-0.125,-8.3363
0.475,-0.1,-7.5541
0.475,-0.075,-7.0927
0.475,-0.05,-6.959
0.475,-0.025,-6.9753
0.475,0,-6.9202
0.475,0.025,-6.7082
0.475,0.05,-6.4471
0.475,0.075,-6.32
0.475,0.1,-6.3923
0.475,0.125,-6.5163
0.475,0.15,-6.4203
0.475,0.175,-5.9163
0.475,0.2,18.04
0.475,0.225,17.758
0.475,0.25,18.043
0.475,0.275,18.703
0.475,0.3,19.393
0.475,0.325,19.775
0.475,0.35,19.666
0.475,0.375,19.096
0.475,0.4,18.257
0.475,0.425,17.392
0.475,0.45,16.685
0.475,0.475,16.204
0.475,0.5,15.915
0.5,-0.5,14.352
0.5,-0.475,14.09
0.5,-0.45,14.436
0.5,-0.425,15.238
0.5,-0.4,16.318
0.5,-0.375,17.515
0.5,-0.35,18.694
0.5,-0.325,19.746
0.5,-0.3,20.594
0.5,-0.275,21.198
0.5,-0.25,21.552
0.5,-0.225,21.671
0.5,-0.2,21.59
0.5,-0.175,21.361
0.5,-0.15,21.05
0.5,-0.125,20.725
0.5,-0.1,-7.8553
0.5,-0.075,-7.1665
0.5,-0.05,-6.8022
0.5,-0.025,-6.6453
0.5,0,-6.525
0.5,0.025,-6.3706
0.5,0.05,-6.2668
0.5,0.075,-6.353
0.5,0.1,-6.658
0.5,0.125,20.7
0.5,0.15,19.922
0.5,0.175,19.074
0.5,0.2,18.456
0.5,0.225,18.297
0.5,0.25,18.637
0.5,0.275,19.297
0.5,0.3,19.954
0.5,0.325,20.289
0.5,0.35,20.126
0.5,0.375,19.495
0.5,0.4,18.597
0.5,0.425,17.697
0.5,0.45,16.994
0.5,0.475,16.556
0.5,0.5,16.327
